KEY,US,FR,DE
Language,"English","French","German"
English,"English","Anglais","Englisch"
French,"French","Français","Französisch"
German,"German","Allemand","Deutsch"
Info,"Localization Example","Localisation Exemple","Beispiel Lokalisierung"
Sound,"Sound","Son","Klingen"
Music,"Music","Musique","Musik"
Desc,"English Localization","Localisation Français","Deutsch-Lokalisierung"
Paragraph,"This example shows how to implement localization using NGUI. In order to localize a widget, simply attach [000000]UILocalize[-] script to it. The script will localize the sprite if it's a [000000]UISprite[-], or the text if it's a [000000]UILabel[-]. If you want to localize something else, just implement the [000000]OnLocalize[-] function. Either way, the actual data is defined via text assets specified on the [000000]Localization[-] script which must be present in the scene.","Cet exemple montre comment implémenter localisation utilisant ngui. Afin de localiser un widget, il suffit de joindre [000000] UILocalize [-] script pour elle. Le script va localiser le sprite si c'est un [000000] UISprite [-], ou le texte si c'est un [000000] UILabel [-]. Si vous souhaitez localiser quelque chose d'autre, juste mettre en œuvre la [000000] OnLocalize - fonction []. Quoi qu'il en soit, les données réelles est définie par les actifs de texte figurant sur la [000000] Localisation [-] le script qui doit être présente dans la scène.","Dieses Beispiel zeigt, wie die Lokalisierung mit Ngui umzusetzen. Um ein Widget zu lokalisieren, einfach befestigen [000000] UILocalize [-] Skript, um es. Das Skript wird das Sprite zu lokalisieren, wenn es ein [000000] UISprite [-], oder der Text, wenn es ein [000000] UILabel [-]. Wenn Sie etwas anderes lokalisieren möchten, nur umsetzen [000000] OnLocalize - Funktion []. [-]-Skript, welches in der Szene vorhanden sein müssen oder so, wird die Ist-Daten über auf der [000000] Lokalisierung angegebenen Text Vermögen."
